%YAML 1.1
%TAG !u! tag:unity3d.com,2011:
--- !u!114 &11400000
MonoBehaviour:
  m_ObjectHideFlags: 0
  m_PrefabParentObject: {fileID: 0}
  m_PrefabInternal: {fileID: 0}
  m_GameObject: {fileID: 0}
  m_Enabled: 1
  m_EditorHideFlags: 0
  m_Script: {fileID: 11500000, guid: 10eab4754565e4d4e926270f46a764cc, type: 3}
  m_Name: Drum
  m_EditorClassIdentifier: 
  ItemType: PicButItem
  ItemName: Drum
  ItemDescription: Music Track
  ItemPriceP: 0
  ItemPrice: 0
  ItemDiscount: 0
  ItemDiscountPercent: 0
  ItemStatus: 0
  ItemIcon: {fileID: 21300000, guid: dce4cc316c6fad94093f2b6935ccd61f, type: 3}
  ItemStack: 0
  ItemListen: {fileID: 8300000, guid: a745fd2121998dd4bba1a23fc2656047, type: 3}
  ItemMat: {fileID: 0}
  ItemRPriceP: 0
  ItemRPrice: 0
