%YAML 1.1
%TAG !u! tag:unity3d.com,2011:
--- !u!114 &11400000
MonoBehaviour:
  m_ObjectHideFlags: 0
  m_PrefabParentObject: {fileID: 0}
  m_PrefabInternal: {fileID: 0}
  m_GameObject: {fileID: 0}
  m_Enabled: 1
  m_EditorHideFlags: 0
  m_Script: {fileID: 11500000, guid: 10eab4754565e4d4e926270f46a764cc, type: 3}
  m_Name: Skin 3
  m_EditorClassIdentifier: 
  ItemType: MatItem
  ItemName: Skin 3
  ItemDescription: 'change the ball skin '
  ItemPriceP: 1
  ItemPrice: 10
  ItemDiscount: 0
  ItemDiscountPercent: 0
  ItemStatus: 0
  ItemIcon: {fileID: 0}
  ItemStack: 0
  ItemListen: {fileID: 0}
  ItemMat: {fileID: 2100000, guid: e8bfd6afa4d94294f94a8b9c29a05f58, type: 2}
  ItemRPriceP: 0
  ItemRPrice: 0
