%YAML 1.1
%TAG !u! tag:unity3d.com,2011:
--- !u!21 &2100000
Material:
  serializedVersion: 6
  m_ObjectHideFlags: 0
  m_PrefabParentObject: {fileID: 0}
  m_PrefabInternal: {fileID: 0}
  m_Name: Rotating 1
  m_Shader: {fileID: 4800000, guid: 100c9f6ec37b01644b7a5f7feac179d6, type: 3}
  m_ShaderKeywords: 
  m_LightmapFlags: 5
  m_CustomRenderQueue: 1000
  stringTagMap: {}
  m_SavedProperties:
    serializedVersion: 2
    m_TexEnvs:
    - first:
        name: _BumpMap
      second:
        m_Texture: {fileID: 0}
        m_Scale: {x: 1, y: 1}
        m_Offset: {x: 0, y: 0}
    - first:
        name: _DetailAlbedoMap
      second:
        m_Texture: {fileID: 0}
        m_Scale: {x: 1, y: 1}
        m_Offset: {x: 0, y: 0}
    - first:
        name: _DetailMask
      second:
        m_Texture: {fileID: 0}
        m_Scale: {x: 1, y: 1}
        m_Offset: {x: 0, y: 0}
    - first:
        name: _DetailNormalMap
      second:
        m_Texture: {fileID: 0}
        m_Scale: {x: 1, y: 1}
        m_Offset: {x: 0, y: 0}
    - first:
        name: _EmissionMap
      second:
        m_Texture: {fileID: 0}
        m_Scale: {x: 1, y: 1}
        m_Offset: {x: 0, y: 0}
    - first:
        name: _MainTex
      second:
        m_Texture: {fileID: 0}
        m_Scale: {x: 1, y: 1}
        m_Offset: {x: 0, y: 0}
    - first:
        name: _MetallicGlossMap
      second:
        m_Texture: {fileID: 0}
        m_Scale: {x: 1, y: 1}
        m_Offset: {x: 0, y: 0}
    - first:
        name: _OcclusionMap
      second:
        m_Texture: {fileID: 0}
        m_Scale: {x: 1, y: 1}
        m_Offset: {x: 0, y: 0}
    - first:
        name: _ParallaxMap
      second:
        m_Texture: {fileID: 0}
        m_Scale: {x: 1, y: 1}
        m_Offset: {x: 0, y: 0}
    m_Floats:
    - first:
        name: _Brightness
      second: 0.63
    - first:
        name: _BumpScale
      second: 1
    - first:
        name: _CLAMPOUT
      second: 0
    - first:
        name: _CamScroll
      second: 55
    - first:
        name: _Cutoff
      second: 0.5
    - first:
        name: _Darkmatter
      second: 40.26
    - first:
        name: _DetailNormalMapScale
      second: 1
    - first:
        name: _Distfading
      second: 34.8
    - first:
        name: _DstBlend
      second: 0
    - first:
        name: _Formuparam
      second: 420.2
    - first:
        name: _Glossiness
      second: 0.5
    - first:
        name: _Iterations
      second: 20
    - first:
        name: _Metallic
      second: 0
    - first:
        name: _Mode
      second: 0
    - first:
        name: _OcclusionStrength
      second: 1
    - first:
        name: _Parallax
      second: 0.02
    - first:
        name: _Saturation
      second: 62
    - first:
        name: _SrcBlend
      second: 1
    - first:
        name: _StepSize
      second: 312.2
    - first:
        name: _Tile
      second: 796.96
    - first:
        name: _UVSec
      second: 0
    - first:
        name: _Volsteps
      second: 15
    - first:
        name: _ZWrite
      second: 1
    m_Colors:
    - first:
        name: _Center
      second: {r: 0, g: 0.3, b: 0.5, a: 0}
    - first:
        name: _Color
      second: {r: 0.3897059, g: 0.3897059, b: 0.3897059, a: 1}
    - first:
        name: _EmissionColor
      second: {r: 0, g: 0, b: 0, a: 1}
    - first:
        name: _Rotation
      second: {r: 4, g: 5, b: 3, a: 1}
    - first:
        name: _Scroll
      second: {r: 0.1, g: 0.1, b: -0.3, a: 0}
